…
~~~
Joining, by = "plot_id"
~~~
{: .output}



~~~
# A tibble: 1,995 x 10
   plot_id plot_type record_id month   day  year species_id sex  
     <int> <chr>         <int> <int> <int> <int> <chr>      <chr>
 1       1 Spectab …         6     7    16  1977 PF         M    
 2       1 Spectab …         8     7    16  1977 DM         M    
 3       1 Spectab …         9     7    16  1977 DM         F    
 4       1 Spectab …        78     8    19  1977 PF         M    
 5       1 Spectab …        80     8    19  1977 DS         M    
 6       1 Spectab …       218     9    13  1977 PF         M    
 7       1 Spectab …       222     9    13  1977 DS         M    
 8       1 Spectab …       239     9    13  1977 DS         M    
 9       1 Spectab …       263    10    16  1977 DM         M    
10       1 Spectab …       270    10    16  1977 DM         F    
# … with 1,985 more rows, and 2 more variables: hindfoot_length <int>,
#   weight <int>
…
>   collect()
> ~~~
> {: .language-r}
> 
> 
> 
> ~~~
> Joining, by = "species_id"
> ~~~
> {: .output}
> 
> 
> 
> ~~~
> # A tibble: 26 x 3
> # Groups:   taxa [1]
>    taxa    year     n
>    <chr>  <int> <int>
>  1 Rodent  1977   487
>  2 Rodent  1978   990
>  3 Rodent  1979   658
>  4 Rodent  1980  1355
>  5 Rodent  1981  1394
>  6 Rodent  1982  1903
>  7 Rodent  1983  1594
>  8 Rodent  1984   914
>  9 Rodent  1985  1398
> 10 Rodent  1986   912
> # … with 16 more rows
…
